{
  "name": "Replay Mod",
  "mainClass": "com.replaymod.core.ReplayMod",
  "version": "BETA 1",
  "mixinConfigs": [
    "mixins.hyperiumcompat.json",
    "mixins.recording.replaymod.json",
    "mixins.replay.replaymod.json",
    "mixins.extras.playeroverview.replaymod.json"
  ]
}